<define-tag pagetitle>DSA-4360-1 libarchive</define-tag>
<define-tag report_date>2018-12-27</define-tag>
<define-tag secrefs>CVE-2016-10209 CVE-2016-10349   CVE-2016-10350 CVE-2017-14166 CVE-2017-14501   CVE-2017-14502 CVE-2017-14503 CVE-2018-1000877 CVE-2018-1000878 CVE-2018-1000880</define-tag>
<define-tag packages>libarchive</define-tag>
<define-tag isvulnerable>yes</define-tag>
<define-tag fixed>yes</define-tag>
<define-tag fixed-section>no</define-tag>

#use wml::debian::security



</dl>
