<define-tag pagetitle>DLA-2883-2</define-tag>
<define-tag report_date>2022-01-26</define-tag>
<define-tag secrefs>CVE-2021-46141</define-tag>
<define-tag packages></define-tag>
<define-tag isvulnerable>yes</define-tag>
<define-tag fixed>yes</define-tag>
<define-tag fixed-section>no</define-tag>

#use wml::debian::security
