<define-tag pagetitle>DLA-3136-1 barbican</define-tag>
<define-tag report_date>2022-10-04</define-tag>
<define-tag secrefs>CVE-2022-3100</define-tag>
<define-tag packages>barbican</define-tag>
<define-tag isvulnerable>yes</define-tag>
<define-tag fixed>yes</define-tag>
<define-tag fixed-section>no</define-tag>

#use wml::debian::security

