<define-tag pagetitle>DLA-2888-1 nvidia-graphics-drivers</define-tag>
<define-tag report_date>2022-1-18</define-tag>
<define-tag secrefs>CVE-2021-1056 CVE-2021-1076 CVE-2021-1093 CVE-2021-1094 CVE-2021-1095 Bug#987216 Bug#987217 Bug#987218 Bug#987219 Bug#987220 Bug#987221 Bug#987222 Bug#991351</define-tag>
<define-tag packages>nvidia-graphics-drivers</define-tag>
<define-tag isvulnerable>yes</define-tag>
<define-tag fixed>yes</define-tag>
<define-tag fixed-section>no</define-tag>

#use wml::debian::security

