<define-tag pagetitle>DLA-3164-1 python-django</define-tag>
<define-tag report_date>2022-10-28</define-tag>
<define-tag secrefs>CVE-2020-24583 CVE-2020-24584 CVE-2021-3281 CVE-2021-23336 CVE-2022-34265</define-tag>
<define-tag packages>python-django</define-tag>
<define-tag isvulnerable>yes</define-tag>
<define-tag fixed>yes</define-tag>
<define-tag fixed-section>no</define-tag>

#use wml::debian::security
