<define-tag pagetitle>DLA-3072-1 postgresql-11</define-tag>
<define-tag report_date>2022-08-11</define-tag>
<define-tag secrefs>CVE-2022-2625</define-tag>
<define-tag packages>postgresql-11</define-tag>
<define-tag isvulnerable>yes</define-tag>
<define-tag fixed>yes</define-tag>
<define-tag fixed-section>no</define-tag>

#use wml::debian::security

