<define-tag pagetitle>DLA-3057-1 request-tracker4</define-tag>
<define-tag report_date>2022-06-23</define-tag>
<define-tag secrefs>CVE-2021-38562</define-tag>
<define-tag packages>request-tracker4</define-tag>
<define-tag isvulnerable>yes</define-tag>
<define-tag fixed>yes</define-tag>
<define-tag fixed-section>no</define-tag>

#use wml::debian::security
