<define-tag pagetitle>DLA-3127-1 libhttp-daemon-perl</define-tag>
<define-tag report_date>2022-9-30</define-tag>
<define-tag secrefs>CVE-2022-31081</define-tag>
<define-tag packages>libhttp-daemon-perl</define-tag>
<define-tag isvulnerable>yes</define-tag>
<define-tag fixed>yes</define-tag>
<define-tag fixed-section>no</define-tag>

#use wml::debian::security

