<define-tag pagetitle>DLA-3158-1 wkhtmltopdf</define-tag>
<define-tag report_date>2022-10-24</define-tag>
<define-tag secrefs>CVE-2020-21365</define-tag>
<define-tag packages>wkhtmltopdf</define-tag>
<define-tag isvulnerable>yes</define-tag>
<define-tag fixed>yes</define-tag>
<define-tag fixed-section>no</define-tag>

#use wml::debian::security

