<define-tag pagetitle>DLA-3093-1 rails</define-tag>
<define-tag report_date>2022-09-13</define-tag>
<define-tag secrefs>CVE-2022-21831 CVE-2022-22577 CVE-2022-23633 CVE-2022-27777 CVE-2022-32224</define-tag>
<define-tag packages>rails</define-tag>
<define-tag isvulnerable>yes</define-tag>
<define-tag fixed>yes</define-tag>
<define-tag fixed-section>no</define-tag>

#use wml::debian::security

