<define-tag pagetitle>DLA-2999-1 mutt</define-tag>
<define-tag report_date>2022-05-11</define-tag>
<define-tag secrefs>CVE-2022-1328 Bug#1009734</define-tag>
<define-tag packages>mutt</define-tag>
<define-tag isvulnerable>yes</define-tag>
<define-tag fixed>yes</define-tag>
<define-tag fixed-section>no</define-tag>

#use wml::debian::security

