<define-tag pagetitle>DLA-2942-1 firefox-esr</define-tag>
<define-tag report_date>2022-03-10</define-tag>
<define-tag secrefs>CVE-2022-26381 CVE-2022-26383 CVE-2022-26384 CVE-2022-26386 CVE-2022-26387</define-tag>
<define-tag packages>firefox-esr</define-tag>
<define-tag isvulnerable>yes</define-tag>
<define-tag fixed>yes</define-tag>
<define-tag fixed-section>no</define-tag>

#use wml::debian::security

