<define-tag pagetitle>DLA-3074-1 epiphany-browser</define-tag>
<define-tag report_date>2022-08-18</define-tag>
<define-tag secrefs>CVE-2021-45085 CVE-2021-45087 CVE-2021-45088 CVE-2022-29536 Bug#1009959</define-tag>
<define-tag packages>epiphany-browser</define-tag>
<define-tag isvulnerable>yes</define-tag>
<define-tag fixed>yes</define-tag>
<define-tag fixed-section>no</define-tag>

#use wml::debian::security

