<define-tag pagetitle>DSA-5004-1 libxstream-java</define-tag>
<define-tag report_date>2021-11-10</define-tag>
<define-tag secrefs>CVE-2021-39139 CVE-2021-39140 CVE-2021-39141 CVE-2021-39144 CVE-2021-39145 CVE-2021-39146 CVE-2021-39147 CVE-2021-39148 CVE-2021-39149 CVE-2021-39150 CVE-2021-39151 CVE-2021-39152 CVE-2021-39153 CVE-2021-39154 CVE-2021-21341 CVE-2021-21342 CVE-2021-21343 CVE-2021-21344 CVE-2021-21345 CVE-2021-21346 CVE-2021-21347 CVE-2021-21348 CVE-2021-21349 CVE-2021-21350 CVE-2021-21351 CVE-2021-29505</define-tag>
<define-tag packages>libxstream-java</define-tag>
<define-tag isvulnerable>yes</define-tag>
<define-tag fixed>yes</define-tag>
<define-tag fixed-section>no</define-tag>

#use wml::debian::security



</dl>
