<define-tag pagetitle>DSA-4922-1 hyperkitty</define-tag>
<define-tag report_date>2021-5-29</define-tag>
<define-tag secrefs>CVE-2021-33038</define-tag>
<define-tag packages>hyperkitty</define-tag>
<define-tag isvulnerable>yes</define-tag>
<define-tag fixed>yes</define-tag>
<define-tag fixed-section>no</define-tag>

#use wml::debian::security



</dl>
