<define-tag pagetitle>DSA-4972-1 ghostscript</define-tag>
<define-tag report_date>2021-9-10</define-tag>
<define-tag secrefs>CVE-2021-3781 Bug#994011</define-tag>
<define-tag packages>ghostscript</define-tag>
<define-tag isvulnerable>yes</define-tag>
<define-tag fixed>yes</define-tag>
<define-tag fixed-section>no</define-tag>

#use wml::debian::security



</dl>
