<define-tag pagetitle>DSA-4617-1 qtbase-opensource-src</define-tag>
<define-tag report_date>2020-2-03</define-tag>
<define-tag secrefs>CVE-2020-0569 CVE-2020-0570</define-tag>
<define-tag packages>qtbase-opensource-src</define-tag>
<define-tag isvulnerable>yes</define-tag>
<define-tag fixed>yes</define-tag>
<define-tag fixed-section>no</define-tag>

#use wml::debian::security



</dl>
