<define-tag pagetitle>DSA-4699-1 linux</define-tag>
<define-tag report_date>2020-6-09</define-tag>
<define-tag secrefs>CVE-2019-3016 CVE-2019-19462 CVE-2020-0543 CVE-2020-10711 CVE-2020-10732 CVE-2020-10751 CVE-2020-10757 CVE-2020-12114 CVE-2020-12464 CVE-2020-12768 CVE-2020-12770 CVE-2020-13143 Bug#960271</define-tag>
<define-tag packages>linux</define-tag>
<define-tag isvulnerable>yes</define-tag>
<define-tag fixed>yes</define-tag>
<define-tag fixed-section>no</define-tag>

#use wml::debian::security



</dl>
