<define-tag pagetitle>DSA-4747-1 icingaweb2</define-tag>
<define-tag report_date>2020-8-23</define-tag>
<define-tag secrefs>CVE-2020-24368 Bug#968833</define-tag>
<define-tag packages>icingaweb2</define-tag>
<define-tag isvulnerable>yes</define-tag>
<define-tag fixed>yes</define-tag>
<define-tag fixed-section>no</define-tag>

#use wml::debian::security



</dl>
