<define-tag pagetitle>DLA-2710-1 rabbitmq-server</define-tag>
<define-tag report_date>2021-07-26</define-tag>
<define-tag secrefs>CVE-2017-4965 CVE-2017-4966 CVE-2017-4967 CVE-2019-11281 CVE-2019-11287 CVE-2021-22116</define-tag>
<define-tag packages>rabbitmq-server</define-tag>
<define-tag isvulnerable>yes</define-tag>
<define-tag fixed>yes</define-tag>
<define-tag fixed-section>no</define-tag>

#use wml::debian::security

