<define-tag pagetitle>DLA-2562-1 mumble</define-tag>
<define-tag report_date>2021-02-18</define-tag>
<define-tag secrefs>CVE-2021-27229</define-tag>
<define-tag packages>mumble</define-tag>
<define-tag isvulnerable>yes</define-tag>
<define-tag fixed>yes</define-tag>
<define-tag fixed-section>no</define-tag>

#use wml::debian::security
