<define-tag pagetitle>DLA-2602-1 imagemagick</define-tag>
<define-tag report_date>2021-3-23</define-tag>
<define-tag secrefs>CVE-2020-25666 CVE-2020-25675 CVE-2020-25676 CVE-2020-27754 CVE-2020-27757 CVE-2020-27758 CVE-2020-27759 CVE-2020-27761 CVE-2020-27762 CVE-2020-27764 CVE-2020-27766 CVE-2020-27767 CVE-2020-27768 CVE-2020-27769 CVE-2020-27770 CVE-2020-27771 CVE-2020-27772 CVE-2020-27774 CVE-2020-27775 CVE-2021-20176 CVE-2021-20241 CVE-2021-20244 CVE-2021-20246</define-tag>
<define-tag packages>imagemagick</define-tag>
<define-tag isvulnerable>yes</define-tag>
<define-tag fixed>yes</define-tag>
<define-tag fixed-section>no</define-tag>

#use wml::debian::security

