<define-tag pagetitle>DLA-2431-2 libonig</define-tag>
<define-tag report_date>2021-1-30</define-tag>
<define-tag secrefs>CVE-2020-26159</define-tag>
<define-tag packages>libonig</define-tag>
<define-tag isvulnerable>yes</define-tag>
<define-tag fixed>yes</define-tag>
<define-tag fixed-section>no</define-tag>

#use wml::debian::security

