<define-tag pagetitle>DLA-2709-1 firefox-esr</define-tag>
<define-tag report_date>2021-07-15</define-tag>
<define-tag secrefs>CVE-2021-29970 CVE-2021-29976 CVE-2021-30547</define-tag>
<define-tag packages>firefox-esr</define-tag>
<define-tag isvulnerable>yes</define-tag>
<define-tag fixed>yes</define-tag>
<define-tag fixed-section>no</define-tag>

#use wml::debian::security

