<define-tag pagetitle>DSA-5356-2 sox</define-tag>
<define-tag report_date>2023-3-17</define-tag>
<define-tag secrefs>Bug#1032082</define-tag>
<define-tag packages>sox</define-tag>
<define-tag isvulnerable>yes</define-tag>
<define-tag fixed>yes</define-tag>
<define-tag fixed-section>no</define-tag>

#use wml::debian::security



</dl>
