<define-tag pagetitle>DSA-5370-1 apr</define-tag>
<define-tag report_date>2023-3-07</define-tag>
<define-tag secrefs>CVE-2022-24963</define-tag>
<define-tag packages>apr</define-tag>
<define-tag isvulnerable>yes</define-tag>
<define-tag fixed>yes</define-tag>
<define-tag fixed-section>no</define-tag>

#use wml::debian::security



</dl>
