<define-tag pagetitle>DSA-5359-1 chromium</define-tag>
<define-tag report_date>2023-2-23</define-tag>
<define-tag secrefs>CVE-2023-0927 CVE-2023-0928 CVE-2023-0929 CVE-2023-0930 CVE-2023-0931 CVE-2023-0932 CVE-2023-0933 CVE-2023-0941</define-tag>
<define-tag packages>chromium</define-tag>
<define-tag isvulnerable>yes</define-tag>
<define-tag fixed>yes</define-tag>
<define-tag fixed-section>no</define-tag>

#use wml::debian::security



</dl>
