<define-tag pagetitle>DLA-845-1 qemu</define-tag>
<define-tag report_date>2017-3-1</define-tag>
<define-tag secrefs>CVE-2017-2615 CVE-2017-2620 CVE-2017-5898 CVE-2017-5973</define-tag>
<define-tag packages>qemu</define-tag>
<define-tag isvulnerable>yes</define-tag>
<define-tag fixed>yes</define-tag>
<define-tag fixed-section>no</define-tag>

#use wml::debian::security

