<define-tag pagetitle>DLA-1029-1 libmtp</define-tag>
<define-tag report_date>2017-7-17</define-tag>
<define-tag secrefs>CVE-2017-9831 CVE-2017-9832</define-tag>
<define-tag packages>libmtp</define-tag>
<define-tag isvulnerable>yes</define-tag>
<define-tag fixed>yes</define-tag>
<define-tag fixed-section>no</define-tag>

#use wml::debian::security

