<define-tag pagetitle>DLA-1176-1 ming</define-tag>
<define-tag report_date>2017-11-18</define-tag>
<define-tag secrefs>CVE-2017-9988 CVE-2017-9989 CVE-2017-11733</define-tag>
<define-tag packages>ming</define-tag>
<define-tag isvulnerable>yes</define-tag>
<define-tag fixed>yes</define-tag>
<define-tag fixed-section>no</define-tag>

#use wml::debian::security

