<define-tag pagetitle>DLA-1144-1 git-annex</define-tag>
<define-tag report_date>2017-10-27</define-tag>
<define-tag secrefs>CVE-2017-12976 Bug#873088</define-tag>
<define-tag packages>git-annex</define-tag>
<define-tag isvulnerable>yes</define-tag>
<define-tag fixed>yes</define-tag>
<define-tag fixed-section>no</define-tag>

#use wml::debian::security

