<define-tag pagetitle>DLA-3305-1 libstb</define-tag>
<define-tag report_date>2023-01-31</define-tag>
<define-tag secrefs>CVE-2018-16981 CVE-2019-13217 CVE-2019-13218 CVE-2019-13219 CVE-2019-13220 CVE-2019-13221 CVE-2019-13222 CVE-2019-13223 CVE-2021-28021 CVE-2021-37789 CVE-2021-42715 CVE-2022-28041 CVE-2022-28042 Bug#934966 Bug#1014530 Bug#1023693 Bug#1014531 Bug#1014532</define-tag>
<define-tag packages>libstb</define-tag>
<define-tag isvulnerable>yes</define-tag>
<define-tag fixed>yes</define-tag>
<define-tag fixed-section>no</define-tag>

#use wml::debian::security

