<define-tag pagetitle>DLA-3280-1 libde265</define-tag>
<define-tag report_date>2023-01-24</define-tag>
<define-tag secrefs>CVE-2020-21596 CVE-2020-21597 CVE-2020-21598 CVE-2022-43235 CVE-2022-43236 CVE-2022-43237 CVE-2022-43238 CVE-2022-43239 CVE-2022-43240 CVE-2022-43241 CVE-2022-43242 CVE-2022-43243 CVE-2022-43244 CVE-2022-43245 CVE-2022-43248 CVE-2022-43249 CVE-2022-43250 CVE-2022-43252 CVE-2022-43253 CVE-2022-47655 Bug#1025816 Bug#1027179 Bug#1029357 Bug#1029397</define-tag>
<define-tag packages>libde265</define-tag>
<define-tag isvulnerable>yes</define-tag>
<define-tag fixed>yes</define-tag>
<define-tag fixed-section>no</define-tag>

#use wml::debian::security

