<define-tag pagetitle>DLA-3349-1 linux-5.10</define-tag>
<define-tag report_date>2023-3-2</define-tag>
<define-tag secrefs>CVE-2022-2873 CVE-2022-3545 CVE-2022-3623 CVE-2022-4696 CVE-2022-36280 CVE-2022-41218 CVE-2022-45934 CVE-2022-47929 CVE-2023-0179 CVE-2023-0240 CVE-2023-0266 CVE-2023-0394 CVE-2023-23454  CVE-2023-23455 CVE-2023-23586 Bug#825141 Bug#1008501 Bug#1027430 Bug#1027483</define-tag>
<define-tag packages>linux-5.10</define-tag>
<define-tag isvulnerable>yes</define-tag>
<define-tag fixed>yes</define-tag>
<define-tag fixed-section>no</define-tag>

#use wml::debian::security

