<define-tag pagetitle>DLA-3364-1 firefox-esr</define-tag>
<define-tag report_date>2023-03-17</define-tag>
<define-tag secrefs>CVE-2023-25751 CVE-2023-25752 CVE-2023-28162 CVE-2023-28164 CVE-2023-28176</define-tag>
<define-tag packages>firefox-esr</define-tag>
<define-tag isvulnerable>yes</define-tag>
<define-tag fixed>yes</define-tag>
<define-tag fixed-section>no</define-tag>

#use wml::debian::security

