<define-tag pagetitle>DLA-3352-1 libde265</define-tag>
<define-tag report_date>2023-03-05</define-tag>
<define-tag secrefs>CVE-2022-47664 CVE-2022-47665 CVE-2023-24751 CVE-2023-24752 CVE-2023-24754 CVE-2023-24755 CVE-2023-24756 CVE-2023-24757 CVE-2023-24758 CVE-2023-25221</define-tag>
<define-tag packages>libde265</define-tag>
<define-tag isvulnerable>yes</define-tag>
<define-tag fixed>yes</define-tag>
<define-tag fixed-section>no</define-tag>

#use wml::debian::security

