<define-tag pagetitle>DLA-3334-1 sofia-sip</define-tag>
<define-tag report_date>2023-02-22</define-tag>
<define-tag secrefs>CVE-2022-47516 Bug#1031792</define-tag>
<define-tag packages>sofia-sip</define-tag>
<define-tag isvulnerable>yes</define-tag>
<define-tag fixed>yes</define-tag>
<define-tag fixed-section>no</define-tag>

#use wml::debian::security

