<define-tag pagetitle>DLA-3346-1 python-werkzeug</define-tag>
<define-tag report_date>2023-02-27</define-tag>
<define-tag secrefs>CVE-2023-23934 CVE-2023-25577 Bug#1031370</define-tag>
<define-tag packages>python-werkzeug</define-tag>
<define-tag isvulnerable>yes</define-tag>
<define-tag fixed>yes</define-tag>
<define-tag fixed-section>no</define-tag>

#use wml::debian::security

