<define-tag pagetitle>DLA-3298-1 ruby-rack</define-tag>
<define-tag report_date>2023-01-31</define-tag>
<define-tag secrefs>CVE-2020-8161 CVE-2020-8184 CVE-2022-44570 CVE-2022-44571 CVE-2022-44572 Bug#963477 Bug#1029832</define-tag>
<define-tag packages>ruby-rack</define-tag>
<define-tag isvulnerable>yes</define-tag>
<define-tag fixed>yes</define-tag>
<define-tag fixed-section>no</define-tag>

#use wml::debian::security

