<define-tag pagetitle>DLA-2220-1 cracklib2</define-tag>
<define-tag report_date>2020-5-24</define-tag>
<define-tag secrefs>CVE-2016-6318</define-tag>
<define-tag packages>cracklib2</define-tag>
<define-tag isvulnerable>yes</define-tag>
<define-tag fixed>yes</define-tag>
<define-tag fixed-section>no</define-tag>

#use wml::debian::security

