<define-tag pagetitle>DLA-2382-1 curl</define-tag>
<define-tag report_date>2020-9-26</define-tag>
<define-tag secrefs>CVE-2020-8231</define-tag>
<define-tag packages>curl</define-tag>
<define-tag isvulnerable>yes</define-tag>
<define-tag fixed>yes</define-tag>
<define-tag fixed-section>no</define-tag>

#use wml::debian::security

