<define-tag pagetitle>DLA-2301-1 json-c</define-tag>
<define-tag report_date>2020-07-30</define-tag>
<define-tag secrefs>CVE-2020-12762 Bug#960326</define-tag>
<define-tag packages>json-c</define-tag>
<define-tag isvulnerable>yes</define-tag>
<define-tag fixed>yes</define-tag>
<define-tag fixed-section>no</define-tag>

#use wml::debian::security

