<define-tag pagetitle>DLA-2468-1 tcpflow</define-tag>
<define-tag report_date>2020-11-28</define-tag>
<define-tag secrefs>CVE-2018-14938</define-tag>
<define-tag packages>tcpflow</define-tag>
<define-tag isvulnerable>yes</define-tag>
<define-tag fixed>yes</define-tag>
<define-tag fixed-section>no</define-tag>

#use wml::debian::security

