<define-tag pagetitle>DLA-2302-1 libjpeg-turbo</define-tag>
<define-tag report_date>2020-07-31</define-tag>
<define-tag secrefs>CVE-2018-1152 CVE-2018-14498 CVE-2020-13790 CVE-2020-14152</define-tag>
<define-tag packages>libjpeg-turbo</define-tag>
<define-tag isvulnerable>yes</define-tag>
<define-tag fixed>yes</define-tag>
<define-tag fixed-section>no</define-tag>

#use wml::debian::security

