<define-tag pagetitle>DLA-2218-1 transmission</define-tag>
<define-tag report_date>2020-5-24</define-tag>
<define-tag secrefs>CVE-2018-10756</define-tag>
<define-tag packages>transmission</define-tag>
<define-tag isvulnerable>yes</define-tag>
<define-tag fixed>yes</define-tag>
<define-tag fixed-section>no</define-tag>

#use wml::debian::security

