<define-tag pagetitle>DLA-2412-1 openjdk-8</define-tag>
<define-tag report_date>2020-10-23</define-tag>
<define-tag secrefs>CVE-2020-14779 CVE-2020-14781 CVE-2020-14782 CVE-2020-14792 CVE-2020-14796 CVE-2020-14797 CVE-2020-14798 CVE-2020-14803</define-tag>
<define-tag packages>openjdk-8</define-tag>
<define-tag isvulnerable>yes</define-tag>
<define-tag fixed>yes</define-tag>
<define-tag fixed-section>no</define-tag>

#use wml::debian::security

