<define-tag pagetitle>DLA-2441-1 sympa</define-tag>
<define-tag report_date>2020-11-09</define-tag>
<define-tag secrefs>CVE-2018-1000671 CVE-2020-26880 Bug#908165 Bug#972189</define-tag>
<define-tag packages>sympa</define-tag>
<define-tag isvulnerable>yes</define-tag>
<define-tag fixed>yes</define-tag>
<define-tag fixed-section>no</define-tag>

#use wml::debian::security

