<define-tag pagetitle>DLA-1284-1 leptonlib</define-tag>
<define-tag report_date>2018-2-15</define-tag>
<define-tag secrefs>CVE-2018-3836 Bug#889759</define-tag>
<define-tag packages>leptonlib</define-tag>
<define-tag isvulnerable>yes</define-tag>
<define-tag fixed>yes</define-tag>
<define-tag fixed-section>no</define-tag>

#use wml::debian::security

