<define-tag pagetitle>DLA-1417-1 ca-certificates</define-tag>
<define-tag report_date>2018-7-7</define-tag>
<define-tag secrefs>Bug##858064 Bug##858539 Bug##867461 Bug##894070</define-tag>
<define-tag packages>ca-certificates</define-tag>
<define-tag isvulnerable>yes</define-tag>
<define-tag fixed>yes</define-tag>
<define-tag fixed-section>no</define-tag>

#use wml::debian::security

