<define-tag pagetitle>DLA-1492-1 dojo</define-tag>
<define-tag report_date>2018-9-3</define-tag>
<define-tag secrefs>CVE-2018-15494 Bug##906540</define-tag>
<define-tag packages>dojo</define-tag>
<define-tag isvulnerable>yes</define-tag>
<define-tag fixed>yes</define-tag>
<define-tag fixed-section>no</define-tag>

#use wml::debian::security

