<define-tag pagetitle>DLA-1447-1 libidn</define-tag>
<define-tag report_date>2018-7-27</define-tag>
<define-tag secrefs>CVE-2017-14062 Bug#873903</define-tag>
<define-tag packages>libidn</define-tag>
<define-tag isvulnerable>yes</define-tag>
<define-tag fixed>yes</define-tag>
<define-tag fixed-section>no</define-tag>

#use wml::debian::security

