<define-tag pagetitle>DLA-1318-1 irssi</define-tag>
<define-tag report_date>2018-3-26</define-tag>
<define-tag secrefs>CVE-2018-7051 Bug##890677</define-tag>
<define-tag packages>irssi</define-tag>
<define-tag isvulnerable>yes</define-tag>
<define-tag fixed>yes</define-tag>
<define-tag fixed-section>no</define-tag>

#use wml::debian::security

