<define-tag pagetitle>DLA-1533-1 git</define-tag>
<define-tag report_date>2018-10-5</define-tag>
<define-tag secrefs>CVE-2018-17456</define-tag>
<define-tag packages>git</define-tag>
<define-tag isvulnerable>yes</define-tag>
<define-tag fixed>yes</define-tag>
<define-tag fixed-section>no</define-tag>

#use wml::debian::security

