<define-tag pagetitle>DSA-4384-1 libgd2</define-tag>
<define-tag report_date>2019-2-04</define-tag>
<define-tag secrefs>CVE-2019-6977 CVE-2019-6978 Bug#920645 Bug#920728</define-tag>
<define-tag packages>libgd2</define-tag>
<define-tag isvulnerable>yes</define-tag>
<define-tag fixed>yes</define-tag>
<define-tag fixed-section>no</define-tag>

#use wml::debian::security



</dl>
