<define-tag pagetitle>DSA-4508-1 h2o</define-tag>
<define-tag report_date>2019-8-24</define-tag>
<define-tag secrefs>CVE-2019-9512 CVE-2019-9514 CVE-2019-9515</define-tag>
<define-tag packages>h2o</define-tag>
<define-tag isvulnerable>yes</define-tag>
<define-tag fixed>yes</define-tag>
<define-tag fixed-section>no</define-tag>

#use wml::debian::security



</dl>
