<define-tag pagetitle>DSA-5286-1 krb5</define-tag>
<define-tag report_date>2022-11-19</define-tag>
<define-tag secrefs>CVE-2022-42898 Bug#1024267</define-tag>
<define-tag packages>krb5</define-tag>
<define-tag isvulnerable>yes</define-tag>
<define-tag fixed>yes</define-tag>
<define-tag fixed-section>no</define-tag>

#use wml::debian::security



</dl>
