<define-tag pagetitle>DSA-5298-1 cacti</define-tag>
<define-tag report_date>2022-12-09</define-tag>
<define-tag secrefs>CVE-2022-0730 CVE-2022-46169 Bug#1008693 Bug#1025648</define-tag>
<define-tag packages>cacti</define-tag>
<define-tag isvulnerable>yes</define-tag>
<define-tag fixed>yes</define-tag>
<define-tag fixed-section>no</define-tag>

#use wml::debian::security



</dl>
