<define-tag pagetitle>DSA-5068-1 chromium</define-tag>
<define-tag report_date>2022-2-07</define-tag>
<define-tag secrefs>CVE-2022-0452 CVE-2022-0453 CVE-2022-0454 CVE-2022-0455 CVE-2022-0456 CVE-2022-0457 CVE-2022-0458 CVE-2022-0459 CVE-2022-0460 CVE-2022-0461 CVE-2022-0462 CVE-2022-0463 CVE-2022-0464 CVE-2022-0465 CVE-2022-0466 CVE-2022-0467 CVE-2022-0468 CVE-2022-0469 CVE-2022-0470</define-tag>
<define-tag packages>chromium</define-tag>
<define-tag isvulnerable>yes</define-tag>
<define-tag fixed>yes</define-tag>
<define-tag fixed-section>no</define-tag>

#use wml::debian::security



</dl>
