<define-tag pagetitle>DSA-5043-1 lxml</define-tag>
<define-tag report_date>2022-1-12</define-tag>
<define-tag secrefs>CVE-2021-43818 Bug#1001885</define-tag>
<define-tag packages>lxml</define-tag>
<define-tag isvulnerable>yes</define-tag>
<define-tag fixed>yes</define-tag>
<define-tag fixed-section>no</define-tag>

#use wml::debian::security



</dl>
