<define-tag pagetitle>DSA-5281-1 nginx</define-tag>
<define-tag report_date>2022-11-15</define-tag>
<define-tag secrefs>CVE-2022-41741 CVE-2022-41742</define-tag>
<define-tag packages>nginx</define-tag>
<define-tag isvulnerable>yes</define-tag>
<define-tag fixed>yes</define-tag>
<define-tag fixed-section>no</define-tag>

#use wml::debian::security



</dl>
