<define-tag pagetitle>DLA-1989-1 linux</define-tag>
<define-tag report_date>2019-11-12</define-tag>
<define-tag secrefs>CVE-2019-0154 CVE-2019-11135</define-tag>
<define-tag packages>linux</define-tag>
<define-tag isvulnerable>yes</define-tag>
<define-tag fixed>yes</define-tag>
<define-tag fixed-section>no</define-tag>

#use wml::debian::security

