<define-tag pagetitle>DLA-1946-1 novnc</define-tag>
<define-tag report_date>2019-10-05</define-tag>
<define-tag secrefs>CVE-2017-18635</define-tag>
<define-tag packages>novnc</define-tag>
<define-tag isvulnerable>yes</define-tag>
<define-tag fixed>yes</define-tag>
<define-tag fixed-section>no</define-tag>

#use wml::debian::security

