<define-tag pagetitle>DLA-1642-1 postgresql-9.4</define-tag>
<define-tag report_date>2019-1-25</define-tag>
<define-tag packages>postgresql-9.4</define-tag>
<define-tag isvulnerable>yes</define-tag>
<define-tag fixed>yes</define-tag>
<define-tag fixed-section>no</define-tag>

#use wml::debian::security

