<define-tag pagetitle>DLA-680-2 bash</define-tag>
<define-tag report_date>2016-10-28</define-tag>
<define-tag secrefs>CVE-2016-7543</define-tag>
<define-tag packages>bash</define-tag>
<define-tag isvulnerable>yes</define-tag>
<define-tag fixed>yes</define-tag>
<define-tag fixed-section>no</define-tag>

#use wml::debian::security

