<define-tag pagetitle>DLA-747-1 libupnp</define-tag>
<define-tag report_date>2016-12-16</define-tag>
<define-tag secrefs>CVE-2016-8863 Bug#842093</define-tag>
<define-tag packages>libupnp</define-tag>
<define-tag isvulnerable>yes</define-tag>
<define-tag fixed>yes</define-tag>
<define-tag fixed-section>no</define-tag>

#use wml::debian::security

