<define-tag pagetitle>DLA-763-1 squid3</define-tag>
<define-tag report_date>2016-12-25</define-tag>
<define-tag secrefs>CVE-2016-10002 Bug#848493</define-tag>
<define-tag packages>squid3</define-tag>
<define-tag isvulnerable>yes</define-tag>
<define-tag fixed>yes</define-tag>
<define-tag fixed-section>no</define-tag>

#use wml::debian::security

