<define-tag pagetitle>DLA-530-1 java-common</define-tag>
<define-tag report_date>2016-6-26</define-tag>
<define-tag packages>java-common</define-tag>
<define-tag isvulnerable>yes</define-tag>
<define-tag fixed>yes</define-tag>
<define-tag fixed-section>no</define-tag>

#use wml::debian::security

